…
<img src="/blogs/homework2_files/figure-html/unnamed-chunk-5-1.png" width="672" />

-   Redraw the same plot, but remove the Las Vegas Strip massacre from the dataset.


```r
#I note that there is a extreme data outlier in the location_type 'other' category and that its particularly high total number of victims skews the presentation of the plot. There are also two other much larger data points in other. In order that the rest of the data show up in good proportioning, I identify these three data points in order to consider removing them and then replot the trend:
   mass_shootings %>%
     count(total_victims) %>%
     arrange(desc(total_victims))
```

```
## # A tibble: 38 × 2
##    total_victims     n
##            <dbl> <int>
##  1           604     1
##  2           102     1
##  3            82     1
##  4            55     1
##  5            48     1
##  6            46     1
##  7            44     2
##  8            41     1
##  9            37     1
## 10            36     1
## # ℹ 28 more rows
```
…
Address the following questions. Generate appropriate figures/tables to support your conclusions.

-   How many white males with prior signs of mental illness initiated a mass shooting after 2000?


```r
# There are 125 entries of mass shootings in this database. I filter these down to those that occurred after 2000, where the shooter is white and had shown signs of prior mental illness. This produces a tibble of 23 entries.

mass_shootings %>%
  filter(year > 2000, race == "White", prior_mental_illness == "Yes")
```

```
## # A tibble: 23 × 14
##    case       year month   day location summary fatalities injured total_victims
##    <chr>     <dbl> <chr> <dbl> <chr>    <chr>        <dbl>   <dbl>         <dbl>
##  1 FedEx wa…  2021 Apr      15 Indiana… "Brand…          8       7            15
##  2 Odessa-M…  2019 Aug      31 Odessa,… "Seth …          7      25            32
##  3 SunTrust…  2019 Jan      23 Sebring… "Zephe…          5       0             5
##  4 Waffle H…  2018 Apr      22 Nashvil… "Travi…          4       4             8
##  5 Marjory …  2018 Feb      14 Parklan… "Nikol…         17      17            34
##  6 Texas Fi…  2017 Nov       5 Sutherl… "Devin…         26      20            46
##  7 Rural Oh…  2017 May      12 Kirkers… "Thoma…          3       0             3
##  8 Isla Vis…  2014 May      23 Santa B… "Ellio…          6      13            19
##  9 Santa Mo…  2013 Jun       7 Santa M… "John …          6       3             9
## 10 Sandy Ho…  2012 Dec      14 Newtown… "Adam …         27       2            29
## # ℹ 13 more rows
## # ℹ 5 more variables: location_type <chr>, male <lgl>, age_of_shooter <dbl>,
## #   race <chr>, prior_mental_illness <chr>
```
…
