…
  mutate(percent=round(100*total/sum(total),digits=2)) %>%
  
#Select the columns of interest and show the results in a table.  

  select(entity,name,party_id,total,percent)
```

```
## `summarise()` has grouped output by "entity". You can override using the
## `.groups` argument.
```

```
## # A tibble: 4,090 × 5
##    entity                                name            party_id  total percent
##    <chr>                                 <chr>           <chr>     <dbl>   <dbl>
##  1 Withers LLP                           Sir Geoffrey C… p4       1.81e6    5.26
##  2 Fiona Bruce and Co LLP                Fiona Bruce     p4       7.12e5    2.06
##  3 Charles Stanley                       John Redwood    p4       6.75e5    1.96
##  4 Cambridge Speaker Series              Theresa May     p4       4.08e5    1.18
##  5 Centerview Partners LLP               Boris Johnson   p4       2.78e5    0.81
##  6 Council of Insurance Agents & Brokers Boris Johnson   p4       2.76e5    0.8 
##  7 Hindustan Times                       Boris Johnson   p4       2.62e5    0.76
##  8 Unite                                 Rebecca Long-B… p15      2.49e5    0.72
##  9 Emerging Asset Management             Sir Bill Wiggin p4       2.32e5    0.67
## 10 Hutchison Ports Europe                Chris Grayling  p4       2.24e5    0.65
## # ℹ 4,080 more rows
```
…
    # The full analysis is given below but this grouping shows all MPs to be loyal to their party, as we had suspected. These variables were then ungrouped so that we could start a new grouping.
      
    # Entity (donors) and abbrev (party types) are now grouped, to see how many combinations exists between them.
      
      group_by(entity,abbrev) %>%  #this produces 2467 relationships.
      ungroup %>% # I then ungroup this group so that I can make another
      
    # We already saw in the solution to the previous question that there are a total of 2213 distinct entity values (i.e. distinct donors). We lost a few rows in filtering out two cases with data entry inconsistencies. So we just check this value again to be sure:
      
      group_by(entity)
    ```
    
    ```
    ## # A tibble: 10,537 × 3
    ## # Groups:   entity [2,211]
    ##    entity                                                       member_id abbrev
    ##    <chr>                                                        <chr>     <chr> 
    ##  1 GUBA Foundation                                              m172      Lab   
    ##  2 Mahir Kilic                                                  m172      Lab   
    ##  3 People's National Party (PNP) Women's Movement               m172      Lab   
    ##  4 National Union of Rail, Maritime and Transport Workers (RMT) m172      Lab   
    ##  5 The Football Association Premier League                      m172      Lab   
    ##  6 1912 Club                                                    m44       Con   
    ##  7 97 Dining Club                                               m44       Con   
    ##  8 Ministry of Foreign Affairs, Qatar                           m44       Con   
    ##  9 Qatar Racing and Equestrian Club (Qatar Ministry of Sports … m44       Con   
    ## 10 Catalyst Presents Foundation                                 m104      Con   
    ## # ℹ 10,527 more rows
    ```
…
```
## `summarise()` has grouped output by 'year'. You can override using the
## `.groups` argument.
```

```r
# Display the resulting dataframe

total_party_donations
```

```
## # A tibble: 28 × 4
##     year name              total_year_donations   prop
##    <dbl> <chr>                            <dbl>  <dbl>
##  1  2020 Conservative                 42770782. 0.612 
##  2  2021 Conservative                 17718212. 0.594 
##  3  2022 Conservative                 15568476. 0.559 
##  4  2022 Labour                        9460879. 0.340 
##  5  2021 Labour                        9493978. 0.318 
##  6  2020 Labour                       13539803. 0.194 
##  7  2020 Liberal Democrats            12717295. 0.182 
##  8  2022 Liberal Democrats             1727152. 0.0620
##  9  2021 Sinn Féin                      822944  0.0276
## 10  2021 Liberal Democrats              700398. 0.0235
## # ℹ 18 more rows
```
…
I would like you to write code that generates the following table.

<img src="../../images/total_donations_table.png" width="80%" />


```r
#Now reordering the table in the manner requested by the question below to match that of total_donations_table.png in the images folder:

total_party_donations[order(total_party_donations$year,total_party_donations$name), ]
```

```
## # A tibble: 28 × 4
##     year name                    total_year_donations    prop
##    <dbl> <chr>                                  <dbl>   <dbl>
##  1  2020 Alliance                             105000  0.00150
##  2  2020 Conservative                       42770782. 0.612  
##  3  2020 Green Party                          378068  0.00541
##  4  2020 Labour                             13539803. 0.194  
##  5  2020 Liberal Democrats                  12717295. 0.182  
##  6  2020 Plaid Cymru                           70000  0.00100
##  7  2020 Scottish National Party              246284. 0.00352
##  8  2020 Sinn Féin                            113892  0.00163
##  9  2021 Alba Party                            53559. 0.00180
## 10  2021 Alliance                              42500  0.00142
## # ℹ 18 more rows
```
…
table5 <- base_url5 %>%
  read_html() %>%
  html_nodes(css="table") %>% # this will isolate all tables on page
  html_table() # Parse an html table into a dataframe

#This produces 5 dataframes of the five tables from the 5 pages:

table1
```

```
## [[1]]
## # A tibble: 45 × 4
##    Job                                             Firm  `Functional area` Type 
##    <chr>                                           <chr> <chr>             <chr>
##  1 "Senior Consultant | Energy & Natural Resource… FTI … "Unknown"         Job  
##  2 "Internships\nSimon-Kucher"                     Simo… "Pricing"         Inte…
##  3 "Senior Analyst\nCIL Management Consultants"    CIL … "Strategy\n+1\nD… Job  
##  4 "Analyst\nEnfuse Group"                         Enfu… "Digital\n+2\nIn… Job  
##  5 "Management Consultants\nCollinson Grant"       Coll… "Process Managem… Job  
##  6 "Business Analyst\nHumatica"                    Huma… "Data Science"    Job  
##  7 "Data Engineer\nValcon"                         Valc… "Data Science\n+… Job  
##  8 "Director - Supply Chain Strategy & Transforma… Capg… "Strategy\n+1\nS… Job  
##  9 "Consultants and Senior Consultants\nProcura C… Proc… "Project Managem… Job  
## 10 "Associate\nMcKinsey & Company"                 McKi… "Strategy\n+1\nD… Job  
## # ℹ 35 more rows
```

```r
table2
```

```
## [[1]]
## # A tibble: 45 × 4
##    Job                                             Firm  `Functional area` Type 
##    <chr>                                           <chr> <chr>             <chr>
##  1 "Supply Chain Operations Analyst\nBearingPoint" Bear… "Supply Chain"    Job  
##  2 "Experienced Consultant, Mergers & Acquisition… West… "Mergers & Acqui… Job  
##  3 "Marketing Executive\nGenioo"                   Geni… "Marketing"       Job  
##  4 "Business Development Manager – R&D Incentives… Aymi… "Sales\n+2\nFina… Job  
##  5 "PH-4779; German Speaking PMO Consultant\nB2E … B2E … "Unknown"         Job  
##  6 "Associate Consultant\nAnalysys Mason"          Anal… "Digital\n+2\nIT… Job  
##  7 "Senior Manager Treasury Technology\nZanders"   Zand… "Corporate Finan… Job  
##  8 "Manager and Senior Manager\nProcura Consultin… Proc… "Project Managem… Job  
##  9 "Director, Business Intelligence | Forensic & … FTI … "Forensic & Liti… Job  
## 10 "Marketing Executive/Manager\nPanoptic Consult… Pano… "Marketing"       Job  
## # ℹ 35 more rows
```

```r
table3
```

```
## [[1]]
## # A tibble: 45 × 4
##    Job                                             Firm  `Functional area` Type 
##    <chr>                                           <chr> <chr>             <chr>
##  1 "Junior Talent Acquisition Specialist\nZanders" Zand… "Recruitment"     Job  
##  2 "Data Analyst\nDigital Power"                   Digi… "Data Science"    Job  
##  3 "Senior Consultant - Cyber Security\nThreeTwoF… Thre… "Cyber Security"  Job  
##  4 "Technical Web Analyst\nDigital Power"          Digi… "Digital"         Job  
##  5 "Director - ER&D Strategy & Transformation (Di… Capg… "Strategy\n+1\nL… Job  
##  6 "Senior Consultant Treasury Technology\nZander… Zand… "Corporate Finan… Job  
##  7 "Innovation Consultants: All levels\nAyming"    Aymi… "Finance\n+2\nDa… Job  
##  8 "Director, Research Practice\nYonder Consultin… Yond… "Strategy\n+3\nM… Job  
##  9 "Workforce - Senior Associate\nPwC"             PwC   "Human Resources" Job  
## 10 "PH-4762; Senior Project Manager - Sales Expan… B2E … "Sales"           Job  
## # ℹ 35 more rows
```

```r
table4
```

```
## [[1]]
## # A tibble: 45 × 4
##    Job                                             Firm  `Functional area` Type 
##    <chr>                                           <chr> <chr>             <chr>
##  1 "Senior DevOps Specialist\nValcon"              Valc… "Software"        Job  
##  2 "Full Stack Engineer\nPA Consulting"            PA C… "Unknown"         Job  
##  3 "PH-4808; Platform Engineer - AWS & Terraform\… B2E … "Unknown"         Job  
##  4 "Cloud Economics - Managing Consultant / Senio… Capg… "Cloud"           Job  
##  5 "Associate Director, Consulting Practice\nYond… Yond… "Strategy\n+1\nS… Job  
##  6 "PH-4806; Senior Back End Developers\nB2E Cons… B2E … "Unknown"         Job  
##  7 "Cloud Strategy - Managing Consultant / Senior… Capg… "Strategy\n+1\nC… Job  
##  8 "Consultant - Valuations, Disputes and Arbitra… FTI … "Unknown"         Job  
##  9 "Cyber | Incident Response - Senior Manager\nP… PwC   "Cyber Security"  Job  
## 10 "Resource Co-ordinator\nPA Consulting"          PA C… "Unknown"         Job  
## # ℹ 35 more rows
```

```r
table5
```

```
## [[1]]
## # A tibble: 45 × 4
##    Job                                             Firm  `Functional area` Type 
##    <chr>                                           <chr> <chr>             <chr>
##  1 "Dynamics 365 CRM Developer\nPA Consulting"     PA C… "CRM\n+1\nSoftwa… Job  
##  2 "SAP Solution Architect | Senior Manager | Tec… PwC   "IT Strategy\n+1… Job  
##  3 "AWS Engineer\nPA Consulting"                   PA C… "Unknown"         Job  
##  4 "Benefits Advisor | Human Resources | Core Ope… FTI … "Human Resources" Job  
##  5 "Finance Transformation - Manager\nPwC"         PwC   "Finance"         Job  
##  6 "Marketing Executive | Forensic & Litigation C… FTI … "Marketing\n+1\n… Job  
##  7 "AWS Data Engineer\nPA Consulting"              PA C… "Data Science"    Job  
##  8 "Executive Assistant, Business Transformation,… FTI … "Unknown"         Job  
##  9 "Finance Transformation - Senior Associate\nPw… PwC   "Finance"         Job  
## 10 "GCP Cloud Architect\nPA Consulting"            PA C… "Cloud"           Job  
## # ℹ 35 more rows
```
…
