…
```r
# Had an arrival delay of two or more hours (> 120 minutes)

flights %>% 
  filter(arr_delay > 120)
```

```
## # A tibble: 10,034 × 19
##     year month   day dep_time sched_dep_time dep_delay arr_time sched_arr_time
##    <int> <int> <int>    <int>          <int>     <dbl>    <int>          <int>
##  1  2013     1     1      811            630       101     1047            830
##  2  2013     1     1      848           1835       853     1001           1950
##  3  2013     1     1      957            733       144     1056            853
##  4  2013     1     1     1114            900       134     1447           1222
##  5  2013     1     1     1505           1310       115     1638           1431
##  6  2013     1     1     1525           1340       105     1831           1626
##  7  2013     1     1     1549           1445        64     1912           1656
##  8  2013     1     1     1558           1359       119     1718           1515
##  9  2013     1     1     1732           1630        62     2028           1825
## 10  2013     1     1     1803           1620       103     2008           1750
## # ℹ 10,024 more rows
## # ℹ 11 more variables: arr_delay <dbl>, carrier <chr>, flight <int>,
## #   tailnum <chr>, origin <chr>, dest <chr>, air_time <dbl>, distance <dbl>,
## #   hour <dbl>, minute <dbl>, time_hour <dttm>
```

```r
# Flew to Houston (IAH or HOU)

flights %>% 
  filter(dest %in% c("IAH", "HOU"))
```

```
## # A tibble: 9,313 × 19
##     year month   day dep_time sched_dep_time dep_delay arr_time sched_arr_time
##    <int> <int> <int>    <int>          <int>     <dbl>    <int>          <int>
##  1  2013     1     1      517            515         2      830            819
##  2  2013     1     1      533            529         4      850            830
##  3  2013     1     1      623            627        -4      933            932
##  4  2013     1     1      728            732        -4     1041           1038
##  5  2013     1     1      739            739         0     1104           1038
##  6  2013     1     1      908            908         0     1228           1219
##  7  2013     1     1     1028           1026         2     1350           1339
##  8  2013     1     1     1044           1045        -1     1352           1351
##  9  2013     1     1     1114            900       134     1447           1222
## 10  2013     1     1     1205           1200         5     1503           1505
## # ℹ 9,303 more rows
## # ℹ 11 more variables: arr_delay <dbl>, carrier <chr>, flight <int>,
## #   tailnum <chr>, origin <chr>, dest <chr>, air_time <dbl>, distance <dbl>,
## #   hour <dbl>, minute <dbl>, time_hour <dttm>
```

```r
# Were operated by United (`UA`), American (`AA`), or Delta (`DL`)

flights %>%
  filter(carrier %in% c("UA", "AA", "DL")) 
```

```
## # A tibble: 139,504 × 19
##     year month   day dep_time sched_dep_time dep_delay arr_time sched_arr_time
##    <int> <int> <int>    <int>          <int>     <dbl>    <int>          <int>
##  1  2013     1     1      517            515         2      830            819
##  2  2013     1     1      533            529         4      850            830
##  3  2013     1     1      542            540         2      923            850
##  4  2013     1     1      554            600        -6      812            837
##  5  2013     1     1      554            558        -4      740            728
##  6  2013     1     1      558            600        -2      753            745
##  7  2013     1     1      558            600        -2      924            917
##  8  2013     1     1      558            600        -2      923            937
##  9  2013     1     1      559            600        -1      941            910
## 10  2013     1     1      559            600        -1      854            902
## # ℹ 139,494 more rows
## # ℹ 11 more variables: arr_delay <dbl>, carrier <chr>, flight <int>,
## #   tailnum <chr>, origin <chr>, dest <chr>, air_time <dbl>, distance <dbl>,
## #   hour <dbl>, minute <dbl>, time_hour <dttm>
```

```r
  # Departed in summer (July, August, and September)
  
flights %>%
  filter(month %in% c(7, 8, 9))
```

```
## # A tibble: 86,326 × 19
##     year month   day dep_time sched_dep_time dep_delay arr_time sched_arr_time
##    <int> <int> <int>    <int>          <int>     <dbl>    <int>          <int>
##  1  2013     7     1        1           2029       212      236           2359
##  2  2013     7     1        2           2359         3      344            344
##  3  2013     7     1       29           2245       104      151              1
##  4  2013     7     1       43           2130       193      322             14
##  5  2013     7     1       44           2150       174      300            100
##  6  2013     7     1       46           2051       235      304           2358
##  7  2013     7     1       48           2001       287      308           2305
##  8  2013     7     1       58           2155       183      335             43
##  9  2013     7     1      100           2146       194      327             30
## 10  2013     7     1      100           2245       135      337            135
## # ℹ 86,316 more rows
## # ℹ 11 more variables: arr_delay <dbl>, carrier <chr>, flight <int>,
## #   tailnum <chr>, origin <chr>, dest <chr>, air_time <dbl>, distance <dbl>,
## #   hour <dbl>, minute <dbl>, time_hour <dttm>
```
…
x <- flights %>% filter(arr_delay > 120)
y <- flights %>% filter(dep_delay > 0)
  anti_join(x, y, by = NULL)
```

```
## Joining with `by = join_by(year, month, day, dep_time, sched_dep_time,
## dep_delay, arr_time, sched_arr_time, arr_delay, carrier, flight, tailnum,
## origin, dest, air_time, distance, hour, minute, time_hour)`
```

```
## # A tibble: 29 × 19
##     year month   day dep_time sched_dep_time dep_delay arr_time sched_arr_time
##    <int> <int> <int>    <int>          <int>     <dbl>    <int>          <int>
##  1  2013     1    27     1419           1420        -1     1754           1550
##  2  2013    10     7     1350           1350         0     1736           1526
##  3  2013    10     7     1357           1359        -2     1858           1654
##  4  2013    10    16      657            700        -3     1258           1056
##  5  2013    11     1      658            700        -2     1329           1015
##  6  2013     3    18     1844           1847        -3       39           2219
##  7  2013     4    17     1635           1640        -5     2049           1845
##  8  2013     4    18      558            600        -2     1149            850
##  9  2013     4    18      655            700        -5     1213            950
## 10  2013     5    22     1827           1830        -3     2217           2010
## # ℹ 19 more rows
## # ℹ 11 more variables: arr_delay <dbl>, carrier <chr>, flight <int>,
## #   tailnum <chr>, origin <chr>, dest <chr>, air_time <dbl>, distance <dbl>,
## #   hour <dbl>, minute <dbl>, time_hour <dttm>
```
…
a <- flights %>% filter(dep_delay > 60)
b <- flights %>% filter(arr_delay >= (dep_delay-30))
  anti_join(a, b, by = NULL)
```

```
## Joining with `by = join_by(year, month, day, dep_time, sched_dep_time,
## dep_delay, arr_time, sched_arr_time, arr_delay, carrier, flight, tailnum,
## origin, dest, air_time, distance, hour, minute, time_hour)`
```

```
## # A tibble: 2,071 × 19
##     year month   day dep_time sched_dep_time dep_delay arr_time sched_arr_time
##    <int> <int> <int>    <int>          <int>     <dbl>    <int>          <int>
##  1  2013     1     1     2205           1720       285       46           2040
##  2  2013     1     1     2326           2130       116      131             18
##  3  2013     1     2     1125            925       120     1445           1146
##  4  2013     1     2     1849           1724        85     2235           1938
##  5  2013     1     3     1503           1221       162     1803           1555
##  6  2013     1     3     1839           1700        99     2056           1950
##  7  2013     1     3     1850           1745        65     2148           2120
##  8  2013     1     3     1904           1659       125     2327           2046
##  9  2013     1     3     1941           1759       102     2246           2139
## 10  2013     1     3     1950           1845        65     2228           2227
## # ℹ 2,061 more rows
## # ℹ 11 more variables: arr_delay <dbl>, carrier <chr>, flight <int>,
## #   tailnum <chr>, origin <chr>, dest <chr>, air_time <dbl>, distance <dbl>,
## #   hour <dbl>, minute <dbl>, time_hour <dttm>
```
…
## Problem 3: What plane (specified by the `tailnum` variable) traveled the most times from New York City airports in 2013? Please `left_join()` the resulting table with the table `planes` (also included in the `nycflights13` package).

For the plane with the greatest number of flights and that had more than 50 seats, please create a table where it flew to during 2013.


```r
#check that all outbound flights originate from one of the three new york city airports, JFK (John F Kennedy), LGA (La Guardia), EWR (Newark). This appears to be the case by eye when spot checking but one needs to check this first systematically. I do this by asking for a tibble for all flights (which reveals 336,776 rows i.e. total number of flights) and then filtering for the aforementioned three airports alone and this also produces a title with 336,776 rows. Thus, I can confirm that the origin attribute is synonymous with the total number of flights departing from a new york city.

flights
```

```
## # A tibble: 336,776 × 19
##     year month   day dep_time sched_dep_time dep_delay arr_time sched_arr_time
##    <int> <int> <int>    <int>          <int>     <dbl>    <int>          <int>
##  1  2013     1     1      517            515         2      830            819
##  2  2013     1     1      533            529         4      850            830
##  3  2013     1     1      542            540         2      923            850
##  4  2013     1     1      544            545        -1     1004           1022
##  5  2013     1     1      554            600        -6      812            837
##  6  2013     1     1      554            558        -4      740            728
##  7  2013     1     1      555            600        -5      913            854
##  8  2013     1     1      557            600        -3      709            723
##  9  2013     1     1      557            600        -3      838            846
## 10  2013     1     1      558            600        -2      753            745
## # ℹ 336,766 more rows
## # ℹ 11 more variables: arr_delay <dbl>, carrier <chr>, flight <int>,
## #   tailnum <chr>, origin <chr>, dest <chr>, air_time <dbl>, distance <dbl>,
## #   hour <dbl>, minute <dbl>, time_hour <dttm>
```

```r
flights %>%
  filter(origin %in% c("JFK", "LGA", "EWR")) 
```

```
## # A tibble: 336,776 × 19
##     year month   day dep_time sched_dep_time dep_delay arr_time sched_arr_time
##    <int> <int> <int>    <int>          <int>     <dbl>    <int>          <int>
##  1  2013     1     1      517            515         2      830            819
##  2  2013     1     1      533            529         4      850            830
##  3  2013     1     1      542            540         2      923            850
##  4  2013     1     1      544            545        -1     1004           1022
##  5  2013     1     1      554            600        -6      812            837
##  6  2013     1     1      554            558        -4      740            728
##  7  2013     1     1      555            600        -5      913            854
##  8  2013     1     1      557            600        -3      709            723
##  9  2013     1     1      557            600        -3      838            846
## 10  2013     1     1      558            600        -2      753            745
## # ℹ 336,766 more rows
## # ℹ 11 more variables: arr_delay <dbl>, carrier <chr>, flight <int>,
## #   tailnum <chr>, origin <chr>, dest <chr>, air_time <dbl>, distance <dbl>,
## #   hour <dbl>, minute <dbl>, time_hour <dttm>
```

```r
# I then filter for the year 2013, and count the number of flights involving each plane count(tailnum) and then arrange this number, n, in descending order. This reveals the plane that has taken the most flights in 2013.
 
flights %>% 
  filter(year == 2013) %>%
  count(tailnum) %>%
  arrange(desc(n))
```

```
## # A tibble: 4,044 × 2
##    tailnum     n
##    <chr>   <int>
##  1 <NA>     2512
##  2 N725MQ    575
##  3 N722MQ    513
##  4 N723MQ    507
##  5 N711MQ    486
##  6 N713MQ    483
##  7 N258JB    427
##  8 N298JB    407
##  9 N353JB    404
## 10 N351JB    402
## # ℹ 4,034 more rows
```

```r
# The plane with tailnumber N725MQ has taken the most (575) flights in 2013. Note that the top entry is 'NA' i.e. not applicable entries, rather than actual flights as departures need to have reference tail numbers.

#We now filter further on the plane that has taken the most flights in 2013 that also has > 50 seats. 

planes %>%
  filter(seats > 50)
```

```
## # A tibble: 3,200 × 9
##    tailnum  year type              manufacturer model engines seats speed engine
##    <chr>   <int> <chr>             <chr>        <chr>   <int> <int> <int> <chr> 
##  1 N10156   2004 Fixed wing multi… EMBRAER      EMB-…       2    55    NA Turbo…
##  2 N102UW   1998 Fixed wing multi… AIRBUS INDU… A320…       2   182    NA Turbo…
##  3 N103US   1999 Fixed wing multi… AIRBUS INDU… A320…       2   182    NA Turbo…
##  4 N104UW   1999 Fixed wing multi… AIRBUS INDU… A320…       2   182    NA Turbo…
##  5 N10575   2002 Fixed wing multi… EMBRAER      EMB-…       2    55    NA Turbo…
##  6 N105UW   1999 Fixed wing multi… AIRBUS INDU… A320…       2   182    NA Turbo…
##  7 N107US   1999 Fixed wing multi… AIRBUS INDU… A320…       2   182    NA Turbo…
##  8 N108UW   1999 Fixed wing multi… AIRBUS INDU… A320…       2   182    NA Turbo…
##  9 N109UW   1999 Fixed wing multi… AIRBUS INDU… A320…       2   182    NA Turbo…
## 10 N110UW   1999 Fixed wing multi… AIRBUS INDU… A320…       2   182    NA Turbo…
## # ℹ 3,190 more rows
```

```r
# This reveals that there are 3200 planes with > 50 seats.

# We now determine which plane has the greatest number of flights which has more than 50 seats.

left_join(flights, planes, by = 'tailnum') %>%
  filter(year.x == 2013, seats > 50) %>%
  count(tailnum) %>%
  arrange(desc(n))
```

```
## # A tibble: 3,200 × 2
##    tailnum     n
##    <chr>   <int>
##  1 N328AA    393
##  2 N338AA    388
##  3 N327AA    387
##  4 N335AA    385
##  5 N323AA    357
##  6 N319AA    354
##  7 N336AA    353
##  8 N329AA    344
##  9 N789JB    332
## 10 N324AA    328
## # ℹ 3,190 more rows
```
…
```
## Warning: Returning more (or less) than 1 row per `summarise()` group was deprecated in
## dplyr 1.1.0.
## ℹ Please use `reframe()` instead.
## ℹ When switching from `summarise()` to `reframe()`, remember that `reframe()`
##   always returns an ungrouped data frame and adjust accordingly.
## Call `lifecycle::last_lifecycle_warnings()` to see where this warning was
## generated.
```

```
## # A tibble: 393 × 2
##    tailnum dest 
##    <chr>   <chr>
##  1 N328AA  LAX  
##  2 N328AA  LAX  
##  3 N328AA  LAX  
##  4 N328AA  LAX  
##  5 N328AA  LAX  
##  6 N328AA  LAX  
##  7 N328AA  LAX  
##  8 N328AA  LAX  
##  9 N328AA  LAX  
## 10 N328AA  LAX  
## # ℹ 383 more rows
```
…
```         
-   How many planes have a missing date of manufacture?
-   What are the five most common manufacturers?
-   Has the distribution of manufacturer changed over time as reflected by the airplanes flying from NYC in 2013? (Hint: you may need to use case_when() to recode the manufacturer name and collapse rare vendors into a category called Other.)
```


```r
#A rendering of planes will afford the total number of rows of manufacturer dates (year):

planes
```

```
## # A tibble: 3,322 × 9
##    tailnum  year type              manufacturer model engines seats speed engine
##    <chr>   <int> <chr>             <chr>        <chr>   <int> <int> <int> <chr> 
##  1 N10156   2004 Fixed wing multi… EMBRAER      EMB-…       2    55    NA Turbo…
##  2 N102UW   1998 Fixed wing multi… AIRBUS INDU… A320…       2   182    NA Turbo…
##  3 N103US   1999 Fixed wing multi… AIRBUS INDU… A320…       2   182    NA Turbo…
##  4 N104UW   1999 Fixed wing multi… AIRBUS INDU… A320…       2   182    NA Turbo…
##  5 N10575   2002 Fixed wing multi… EMBRAER      EMB-…       2    55    NA Turbo…
##  6 N105UW   1999 Fixed wing multi… AIRBUS INDU… A320…       2   182    NA Turbo…
##  7 N107US   1999 Fixed wing multi… AIRBUS INDU… A320…       2   182    NA Turbo…
##  8 N108UW   1999 Fixed wing multi… AIRBUS INDU… A320…       2   182    NA Turbo…
##  9 N109UW   1999 Fixed wing multi… AIRBUS INDU… A320…       2   182    NA Turbo…
## 10 N110UW   1999 Fixed wing multi… AIRBUS INDU… A320…       2   182    NA Turbo…
## # ℹ 3,312 more rows
```

```r
#The tibble matrix 3,322 x 9 shows that there are 3,322 manufacturer year records. We now compute how many have a missing date:

planes %>%
  filter (!is.na(year))
```

```
## # A tibble: 3,252 × 9
##    tailnum  year type              manufacturer model engines seats speed engine
##    <chr>   <int> <chr>             <chr>        <chr>   <int> <int> <int> <chr> 
##  1 N10156   2004 Fixed wing multi… EMBRAER      EMB-…       2    55    NA Turbo…
##  2 N102UW   1998 Fixed wing multi… AIRBUS INDU… A320…       2   182    NA Turbo…
##  3 N103US   1999 Fixed wing multi… AIRBUS INDU… A320…       2   182    NA Turbo…
##  4 N104UW   1999 Fixed wing multi… AIRBUS INDU… A320…       2   182    NA Turbo…
##  5 N10575   2002 Fixed wing multi… EMBRAER      EMB-…       2    55    NA Turbo…
##  6 N105UW   1999 Fixed wing multi… AIRBUS INDU… A320…       2   182    NA Turbo…
##  7 N107US   1999 Fixed wing multi… AIRBUS INDU… A320…       2   182    NA Turbo…
##  8 N108UW   1999 Fixed wing multi… AIRBUS INDU… A320…       2   182    NA Turbo…
##  9 N109UW   1999 Fixed wing multi… AIRBUS INDU… A320…       2   182    NA Turbo…
## 10 N110UW   1999 Fixed wing multi… AIRBUS INDU… A320…       2   182    NA Turbo…
## # ℹ 3,242 more rows
```

```r
#This gives a tibble matrix size of 3252 x 9. Thus, the number of missing manufacturer year dates is 3322-3252 = 70. 

#Now determining the five most common plane manufacturers:

#manufacturers <- planes %>%
  #group_by(manufacturer)
planes %>% 
  count(manufacturer) %>%
  arrange(desc(n)) 
```

```
## # A tibble: 35 × 2
##    manufacturer                      n
##    <chr>                         <int>
##  1 BOEING                         1630
##  2 AIRBUS INDUSTRIE                400
##  3 BOMBARDIER INC                  368
##  4 AIRBUS                          336
##  5 EMBRAER                         299
##  6 MCDONNELL DOUGLAS               120
##  7 MCDONNELL DOUGLAS AIRCRAFT CO   103
##  8 MCDONNELL DOUGLAS CORPORATION    14
##  9 CANADAIR                          9
## 10 CESSNA                            9
## # ℹ 25 more rows
```
…
```r
#This shows that the oldest plane in service from NYC flights in 2013 is from 1956.

#I then determine how many planes that flew from NYC in 2013 (which I define as those having a valid arrival time) are included in the plane table using:

left_join(flights, planes, by = 'tailnum') %>%
  filter (!is.na(arr_time)) %>%
  count(tailnum) %>%
  arrange(desc(n))
```

```
## # A tibble: 4,037 × 2
##    tailnum     n
##    <chr>   <int>
##  1 N725MQ    546
##  2 N722MQ    485
##  3 N723MQ    476
##  4 N711MQ    464
##  5 N713MQ    451
##  6 N258JB    422
##  7 N353JB    403
##  8 N298JB    402
##  9 N351JB    391
## 10 N328AA    389
## # ℹ 4,027 more rows
```
…
